mathew_nganga/mathew_fflop/timingF_diagram.vcd
$date
     Nov 29, 2016       12:39:21
$end

$version
 SystemC 2.3.1-Accellera --- Oct 25 2016 11:30:52
$end

$timescale
     1 ns
$end

$scope module SystemC $end
$var wire    1  aaaaa  binary_input       $end
$var wire    1  aaaab  clock       $end
$var wire    1  aaaac  binary_output       $end
$upscope $end
$enddefinitions  $end

$comment
All initial values are dumped below at time 0 sec = 0 timescale units.
$end

$dumpvars
0aaaaa
0aaaab
0aaaac
$end

#5
1aaaaa
1aaaab
1aaaac

#10
0aaaab

#15
0aaaaa
1aaaab
0aaaac

#20
1aaaaa
0aaaab

#25
1aaaab
1aaaac

#30
0aaaaa
0aaaab

#35
1aaaaa
1aaaab

#40
0aaaab

#45
0aaaaa
1aaaab
0aaaac

#50
1aaaaa
0aaaab

#55
1aaaab
1aaaac

#60
0aaaaa
0aaaab

#65
1aaaaa
1aaaab

#70
0aaaab

#75
0aaaaa
1aaaab
0aaaac

#80
1aaaaa
0aaaab

